nano etc/check_ping.sh # ping 8.8.8.8 3 lần

-------------------------------------

while true; do
    ping -c 3 8.8.8.8  

    if [ $? -ne 0 ]; then
        /etc/init.d/network restart
        echo "Network service restarted."
    else
        echo "Ping to 8.8.8.8 successful."
    fi

    sleep 300  
done

-------------------------------------

chmod 777 etc/check_ping.sh

///////////////////////////////////////////////

nano /etc/rc.local

	Nội dung file

sh /etc/check_ping.sh
exit 0

//////////////////////////////////////////////

while true; do
    if /sbin/ifconfig phy0-sta0 | grep -q "UP"; then
        echo "Runing mqtt_lcd"
        /../home/mqtt_lcd_4bit
        break
    else
        echo "No Internet. Waiting ..."
        sleep 5
    fi
done
